983114 390113 525
759505 513198 509
425134 236239 449
362861 934945 525
15930 237040 443
710809 297569 509
516592 465099 470
898515 853565 445
983896 358011 525
818143 133393 509
887155 685879 525
554470 337188 470
826479 58281 509
321869 559999 470
153400 663924 509
974642 102582 525
278656 705730 509
651758 749451 504
224764 32532 386
695303 207830 509
704602 762823 504
211840 45381 383
208833 106784 383
462720 405567 449
300755 1223 443
545055 470475 470
530106 967141 525
41636 526479 470
399446 987538 525
122026 94061 354
165716 710189 509
11317 913252 525
31119 767210 509
48187 978619 525
956027 370704 525
897398 607712 525
920048 128482 525
735033 242821 509
887130 971195 507
906740 14618 525
287644 941182 525
288697 975183 525
499823 135157 449
765365 878786 525
848728 985358 507
56383 268323 443
769118 308052 509
697830 225518 509
708226 460331 509
41129 278765 443
432694 606431 470
370174 105094 443
785198 513623 509
994005 730553 525
48356 167298 383
81444 775034 509
197679 425116 449
394886 865109 525
413255 256044 449
219759 895552 525
465874 30807 449
24722 198145 383
106364 464103 449
32594 432695 449
591466 251658 470
403226 69967 443
468350 714738 509
51664 68982 340
207496 87187 383
304764 114400 443
993578 933904 507
851793 217311 525
306426 632117 509
707799 8159 509
285020 327176 389
495149 730394 509
224028 615599 470
663965 714478 504
625835 984444 525
248162 688866 509
860757 796165 525
265506 984755 525
122005 373670 443
666633 539607 509
838175 969815 507
86067 444182 449
647254 436618 509
975271 261662 525
475281 656831 509
718330 374393 509
610802 270445 470
967851 524002 525
194609 258777 443
635411 764480 504
18385 337438 443
186459 626689 509
148195 595744 470
91101 511880 449
14190 176524 383
172064 18936 383
755454 926373 525
783643 874125 525
214377 820931 509
931465 893998 476
710203 154175 509
28145 172027 383
14378 866603 525
69778 594121 470
465108 294467 449
983370 553469 525
93486 60625 351
555285 96044 470
455215 391152 449
987549 363599 525
503460 100846 449
675528 37388 509
695156 645810 442
314557 178875 443
644784 169411 509
40766 90210 351
437681 158373 449
314173 642150 509
63056 303650 443
801154 615664 509
832143 744673 468
515374 218393 470
953059 356550 525
741253 251135 509
991483 883731 507
876834 831631 525
13809 241134 443
792776 255459 509
954042 5653 525
221398 305637 443
366149 301210 441
804044 338567 509
59334 633856 509
289149 990275 525
486376 566466 470
183986 349002 443
814363 92244 509
572883 83235 470
555776 463783 470
877371 270185 525
101204 614393 470
278777 201974 443
27254 614286 470
109374 221499 386
127993 826379 509
224402 983244 525
216135 836008 509
66410 830485 509
873824 502847 525
308996 346161 441
471787 633403 509
291534 925095 525
2167 598759 470
621632 94856 470
226543 631352 509
30353 865166 525
146690 925552 525
567459 488421 470
443967 985457 525
295486 896860 525
853596 497894 525
563008 136186 470
197850 497846 449
110018 286663 443
253839 959188 525
914662 216946 525
178262 395084 443
994540 933384 507
238621 524072 470
80573 886310 525
998215 828618 525
401435 529097 470
798802 183301 509
444140 925585 525
830263 117083 509
700365 424153 509
244305 283961 407
712552 793666 468
95844 661374 509
440793 581575 470
576058 262618 470
397464 113049 443
404055 182791 443
91071 737761 509
959727 508425 525
835033 243647 509
422484 131844 449
776569 387462 509
916167 893159 476
452782 1236 449
987417 292233 525
667858 894272 525
69343 817344 509
622673 742680 509
576738 547026 421
183854 970629 525
