399154 978561 525
393434 339525 441
469917 524129 470
148702 985633 525
502148 854348 525
814043 611980 509
343 772941 509
190478 649570 509
110739 896047 525
950652 735807 525
241074 313755 407
431991 135811 449
949898 286752 525
444131 895950 525
770623 505160 509
129397 160611 383
310166 554051 470
613528 750837 509
195059 34582 383
709180 70831 509
562570 165820 470
81089 902340 525
71638 74936 325
282744 327616 389
963800 603083 525
537299 775689 509
660973 221515 509
743734 143143 509
778652 574314 509
749430 549763 509
298876 401372 441
298280 290462 358
470834 842273 525
716564 149741 509
802397 322779 509
640342 408438 509
562588 85856 470
73123 442817 449
787149 862493 525
293121 54689 443
601709 241730 470
2317 29079 308
853568 173961 525
981097 428148 525
310394 956950 525
206263 194877 360
716862 306738 509
907757 19936 525
121803 324004 443
14474 543104 470
113268 127036 349
709152 682368 504
576652 247205 470
274250 723939 509
550476 396147 470
976768 507432 525
989555 671811 525
40428 298734 443
216399 20296 386
894231 487570 525
828225 15358 509
443463 589421 470
240563 6054 443
403194 85472 443
72519 24589 340
446266 203134 449
897505 175615 525
956600 859133 507
346641 297288 441
427995 47552 449
451278 688298 509
328705 695409 509
472641 253067 449
176807 576119 470
568889 184892 470
198643 641341 509
669434 635586 442
726793 759054 424
101523 461848 449
389150 490851 449
611965 334208 470
92934 207119 383
416889 268295 449
811548 725736 468
811651 159111 509
876830 754312 525
973579 590744 525
924747 606030 525
191582 183698 360
636717 601872 509
824035 919867 525
329680 89624 443
853854 442086 525
795505 545778 509
364955 7104 443
820000 752714 468
219660 730928 509
659682 226356 509
558928 165011 470
761789 341981 509
890358 817981 525
647244 696209 442
777401 457730 509
971224 638391 525
117474 759981 509
400336 962328 525
258555 810031 509
806282 817852 406
787213 687636 504
672335 440366 509
233770 715723 509
478531 423559 444
859158 672390 525
876524 516077 525
82635 12418 351
444886 80005 449
765837 975476 525
628381 89831 509
44992 326067 443
677282 10662 509
679937 616496 509
967146 958309 414
752327 862132 525
447693 731076 509
294149 346957 441
861476 384394 525
128023 20188 354
882220 611248 525
305991 539755 470
106404 725238 509
413374 546113 470
500283 875479 525
126706 429411 449
179407 953485 525
609634 356084 470
243290 960739 525
957270 993800 458
405160 555636 470
636884 506970 509
661397 793610 504
464374 697085 509
623638 532465 452
140333 454013 449
826811 523086 509
398852 5028 443
894456 42582 525
255775 167190 443
336832 175606 443
956715 864190 507
569456 173597 470
307879 584492 470
790110 476389 509
763941 829976 468
150398 464055 449
683695 922174 525
221906 383310 443
488125 329339 449
236483 518967 470
862155 232279 525
685350 419365 509
583613 20927 470
308107 416736 449
799202 574240 509
56263 981707 525
931216 895032 476
157139 684988 509
795477 490155 509
494705 750902 509
377910 15442 443
481739 308009 449
589177 684406 509
355875 390318 436
882582 813581 525
709363 763740 424
624412 349368 470
721927 670588 504
279386 821100 509
893081 109679 525
668636 811907 504
711945 476922 509
778233 300656 509
61786 733411 509
743312 284150 509
951378 510583 525
994075 51823 525
67439 562371 470
315509 277830 389
940282 195145 525
898027 848968 445
77930 201078 383
400036 635238 509
809020 762119 468
769445 467077 509
403968 454209 449
645694 128194 509
683576 865422 525
524201 360030 470
834733 767783 468
657000 889072 525
562824 173510 470
473739 843758 525
260688 219367 443
329898 806054 509
129502 388492 443
343010 844962 525
691566 816571 504
375065 303435 441
527781 206049 470
594910 240452 470
16300 604259 470
163210 121838 383
519762 41905 470
244635 466952 449
405211 834925 509
977717 459546 525
329825 11416 443
723046 258807 509
84945 263902 443
454462 417396 418
798532 442564 509
275539 970350 525
456638 950865 525
101714 579398 470
642563 626732 416
122335 800926 509
45069 759314 509
387750 579732 470
214659 408766 443
425542 509619 444
111901 712280 509
972676 152977 525
766926 564660 509
568932 994054 525
610192 737433 509
392797 363842 436
28542 403581 443
600618 624661 447
514370 988349 525
335692 465414 449
654257 388063 509
29575 480217 449
954005 219170 525
375199 764783 509
109707 369832 443
389319 332106 441
627633 255362 509
28885 695046 509
909653 780466 525
990492 893127 507
981267 87508 525
33189 110290 354
527375 967480 525
283342 466544 449
196351 725010 509
792985 959541 525
206268 367636 443
830827 323296 509
67606 436302 449
809379 69936 509
259068 923276 525
869473 667334 525
988171 677138 525
124224 655927 509
27302 680762 509
832827 285636 509
877355 332509 525
270900 764381 509
441857 566493 470
931301 534042 525
544473 369960 470
585946 245523 470
547077 764150 509
378239 92706 443
219670 73495 386
611856 966198 525
460709 698946 509
62123 884556 525
398214 494903 449
260341 230099 443
29083 528647 470
94993 620235 470
154968 880100 525
102839 59775 351
912683 321763 525
824200 442265 509
669700 549365 509
751597 256002 509
433206 884830 525
739154 38418 509
612700 714614 509
774961 707818 468
395390 179819 443
60066 701532 509
154260 637097 509
263777 531227 470
473136 94301 449
554576 908219 525
638602 728195 504
891647 762954 525
269369 77080 443
853162 354701 525
497506 890465 525
340219 186568 443
808674 689086 504
683432 293371 509
495780 549001 470
951729 48106 525
349750 94323 443
779007 48731 509
56399 146983 375
905426 216324 525
721368 987419 525
451630 571073 470
204647 769941 509
884018 816696 525
669961 590847 509
73898 98980 351
43554 691229 509
92539 559121 470
598850 539664 452
862434 615859 525
255748 324006 407
65117 787610 509
944800 655213 525
988639 620342 525
156529 620537 470
685649 888863 525
247897 814151 509
81441 390148 443
109468 590829 470
78672 402462 443
732985 506340 509
993563 245561 525
74130 265047 443
313095 646781 509
260377 509906 449
114890 598390 470
127645 903297 525
521059 320858 470
384246 837338 509
291501 620955 470
602266 666615 509
145127 99138 375
965954 927809 507
533941 95369 470
743216 95210 509
508405 567425 470
677331 665743 398
201201 190142 360
55423 233824 443
771769 667395 504
214452 248147 443
145455 938822 525
658766 345871 509
983529 688548 525
184405 818386 509
961012 531942 525
40696 845246 525
907362 114178 525
519375 491839 470
39705 913906 525
185075 451061 449
820534 759363 468
520435 698799 509
93459 756199 509
938822 400540 525
808643 763964 468
707179 449326 509
778115 559113 509
627928 351351 509
53653 700938 509
673302 625145 509
376833 522124 470
50246 269650 443
350272 716640 509
114281 823202 509
689394 817108 504
68528 312906 443
985653 684926 525
114767 868748 525
968461 804820 525
860065 883982 432
233411 192830 443
999701 882055 507
657041 929364 525
313169 3926 443
882890 317126 525
354786 664807 509
306246 936859 525
471404 710308 509
464867 161171 449
847234 122901 525
273816 791751 509
811917 600181 509
593017 774927 509
144830 624834 470
31548 197848 383
656227 47810 509
857397 55954 525
932144 250898 525
351751 405805 436
183019 176311 365
692280 273401 509
440118 655843 509
883103 6173 525
555399 778985 509
379555 323398 441
210819 194569 373
754234 401818 509
22954 573737 470
206027 955966 525
365082 583447 470
733481 737486 424
33274 126564 354
893836 317 525
963310 369033 525
631654 88569 509
232835 979145 525
925963 480758 525
11928 173370 383
377725 793720 509
82931 352329 443
522859 481378 470
249558 691614 509
680793 226816 509
994039 189346 525
941959 761694 525
691387 482824 509
675802 982882 525
173817 364861 443
322882 139052 443
585147 143369 470
763603 680610 504
360735 660074 509
223269 654953 509
502722 884447 525
646347 600766 509
691363 97005 509
833636 914867 525
111831 611827 470
217868 401943 443
729130 951476 525
249767 566187 470
656842 412912 509
839043 115431 525
563367 409983 470
305667 99555 443
584226 408062 470
64601 128743 354
334661 607777 470
78703 801087 509
247709 863313 525
14036 566200 470
584658 764776 509
200072 362800 443
350735 168145 443
627429 6433 509
906891 255334 525
964411 100688 525
458228 860631 525
152783 89858 375
874648 914552 476
442609 955174 525
293369 419070 449
63865 50201 340
785189 626477 504
704260 183340 509
639962 873736 525
512747 214581 470
844615 226230 525
191751 956617 525
48399 711462 509
872570 441663 525
988844 915460 507
119861 990212 525
898557 569141 525
883180 634777 525
303506 944839 525
256694 884405 525
385490 487172 449
418666 446107 418
307720 566465 470
456444 414715 418
961878 164518 525
198303 34091 383
444548 810784 509
900506 306156 525
457899 99428 449
634672 544910 509
929576 157850 525
379193 9662 443
90887 559498 470
505498 953448 525
944850 674778 525
534957 996009 525
41040 838514 525
289454 572934 470
992513 70302 525
911608 850338 476
754717 411411 509
